<svg width="180" height="180" viewBox="0 0 180 180" fill="none" xmlns="http://www.w3.org/2000/svg">
<rect x="0.5" y="0.5" width="179" height="179" rx="7.5" stroke="#BDBDBD"/>
<path d="M58.8184 133.203H61.0332V142.177C61.0332 143.401 60.6494 144.374 59.8818 145.095C59.1201 145.815 58.1123 146.176 56.8584 146.176C55.5225 146.176 54.4912 145.839 53.7646 145.165C53.0381 144.491 52.6748 143.554 52.6748 142.353H54.8896C54.8896 143.032 55.0566 143.545 55.3906 143.891C55.7305 144.23 56.2197 144.4 56.8584 144.4C57.4561 144.4 57.9307 144.204 58.2822 143.812C58.6396 143.413 58.8184 142.865 58.8184 142.168V133.203ZM72.9424 133.203V141.755C72.9424 143.114 72.5059 144.192 71.6328 144.989C70.7656 145.78 69.6084 146.176 68.1611 146.176C66.6963 146.176 65.5332 145.786 64.6719 145.007C63.8105 144.222 63.3799 143.135 63.3799 141.746V133.203H65.5947V141.764C65.5947 142.619 65.8115 143.272 66.2451 143.724C66.6787 144.175 67.3174 144.4 68.1611 144.4C69.8721 144.4 70.7275 143.498 70.7275 141.693V133.203H72.9424ZM82.0127 142.704C82.0127 142.142 81.8135 141.708 81.415 141.403C81.0225 141.099 80.3105 140.791 79.2793 140.48C78.248 140.17 77.4277 139.824 76.8184 139.443C75.6523 138.711 75.0693 137.756 75.0693 136.578C75.0693 135.547 75.4883 134.697 76.3262 134.029C77.1699 133.361 78.2627 133.027 79.6045 133.027C80.4951 133.027 81.2891 133.191 81.9863 133.52C82.6836 133.848 83.2314 134.316 83.6299 134.926C84.0283 135.529 84.2275 136.2 84.2275 136.938H82.0127C82.0127 136.271 81.8018 135.749 81.3799 135.374C80.9639 134.993 80.3662 134.803 79.5869 134.803C78.8604 134.803 78.2949 134.958 77.8906 135.269C77.4922 135.579 77.293 136.013 77.293 136.569C77.293 137.038 77.5098 137.431 77.9434 137.747C78.377 138.058 79.0918 138.362 80.0879 138.661C81.084 138.954 81.8838 139.291 82.4873 139.672C83.0908 140.047 83.5332 140.48 83.8145 140.973C84.0957 141.459 84.2363 142.03 84.2363 142.687C84.2363 143.753 83.8262 144.603 83.0059 145.235C82.1914 145.862 81.084 146.176 79.6836 146.176C78.7578 146.176 77.9053 146.006 77.126 145.666C76.3525 145.32 75.749 144.846 75.3154 144.242C74.8877 143.639 74.6738 142.936 74.6738 142.133H76.8975C76.8975 142.859 77.1377 143.422 77.6182 143.82C78.0986 144.219 78.7871 144.418 79.6836 144.418C80.457 144.418 81.0371 144.263 81.4238 143.952C81.8164 143.636 82.0127 143.22 82.0127 142.704ZM95.4336 134.996H91.4434V146H89.2373V134.996H85.2822V133.203H95.4336V134.996ZM103.959 133.203L107.65 143.012L111.333 133.203H114.207V146H111.992V141.781L112.212 136.139L108.433 146H106.842L103.071 136.147L103.291 141.781V146H101.076V133.203H103.959ZM124.323 140.287H119.067V144.225H125.211V146H116.844V133.203H125.149V134.996H119.067V138.529H124.323V140.287Z" fill="#828282"/>
<path d="M87.5 36C76.3051 36 67.1973 45.1078 67.1973 56.3027C67.1973 67.4977 76.3051 76.6055 87.5 76.6055C98.6949 76.6055 107.803 67.4977 107.803 56.3027C107.803 45.1078 98.6949 36 87.5 36ZM87.5 72.0938C78.7928 72.0938 71.709 65.0099 71.709 56.3027C71.709 47.5956 78.7928 40.5117 87.5 40.5117C96.2072 40.5117 103.291 47.5956 103.291 56.3027C103.291 65.0099 96.2072 72.0938 87.5 72.0938Z" fill="#828282"/>
<circle cx="87.5" cy="56.5" r="17.5" fill="#828282"/>
<path d="M112.761 89.8692C107.202 84.2253 99.8334 81.1172 92.0117 81.1172H82.9883C75.1668 81.1172 67.7979 84.2253 62.2395 89.8692C56.7083 95.4854 53.6621 102.899 53.6621 110.744C53.6621 111.99 54.6721 113 55.918 113H119.082C120.328 113 121.338 111.99 121.338 110.744C121.338 102.899 118.292 95.4854 112.761 89.8692ZM58.2731 108.488C59.4033 95.6921 70.0563 85.6289 82.9883 85.6289H92.0117C104.944 85.6289 115.597 95.6921 116.727 108.488H58.2731Z" fill="#828282"/>
<rect x="55" y="96" width="65" height="17" rx="8.5" fill="#828282"/>
<rect x="63" y="85" width="49" height="20" rx="8.5" fill="#828282"/>
</svg>
