<svg width="133" height="75" viewBox="0 0 133 75" fill="none" xmlns="http://www.w3.org/2000/svg">
<path d="M104.5 0C96.2128 0 89.4707 6.74214 89.4707 15.0293C89.4707 23.3165 96.2128 30.0586 104.5 30.0586C112.787 30.0586 119.529 23.3165 119.529 15.0293C119.529 6.74214 112.787 0 104.5 0ZM104.5 26.7188C98.0544 26.7188 92.8105 21.4749 92.8105 15.0293C92.8105 8.58373 98.0544 3.33984 104.5 3.33984C110.946 3.33984 116.189 8.58373 116.189 15.0293C116.189 21.4749 110.946 26.7188 104.5 26.7188Z" fill="#828282"/>
<path d="M123.199 39.8772C119.085 35.6993 113.63 33.3984 107.84 33.3984H101.16C95.3702 33.3984 89.9153 35.6993 85.8007 39.8772C81.7061 44.0346 79.4512 49.5224 79.4512 55.3301C79.4512 56.2523 80.1989 57 81.1211 57H127.879C128.801 57 129.549 56.2523 129.549 55.3301C129.549 49.5224 127.294 44.0346 123.199 39.8772ZM82.8645 53.6602C83.7011 44.1877 91.5872 36.7383 101.16 36.7383H107.84C117.413 36.7383 125.299 44.1877 126.136 53.6602H82.8645Z" fill="#828282"/>
<path d="M28.5 0C20.2128 0 13.4707 6.74214 13.4707 15.0293C13.4707 23.3165 20.2128 30.0586 28.5 30.0586C36.7872 30.0586 43.5293 23.3165 43.5293 15.0293C43.5293 6.74214 36.7872 0 28.5 0ZM28.5 26.7188C22.0544 26.7188 16.8105 21.4749 16.8105 15.0293C16.8105 8.58373 22.0544 3.33984 28.5 3.33984C34.9456 3.33984 40.1895 8.58373 40.1895 15.0293C40.1895 21.4749 34.9456 26.7188 28.5 26.7188Z" fill="#828282"/>
<path d="M47.1993 39.8772C43.0847 35.6993 37.6299 33.3984 31.8398 33.3984H25.1602C19.3702 33.3984 13.9153 35.6993 9.80066 39.8772C5.70612 44.0346 3.45117 49.5224 3.45117 55.3301C3.45117 56.2523 4.19885 57 5.12109 57H51.8789C52.8011 57 53.5488 56.2523 53.5488 55.3301C53.5488 49.5224 51.2939 44.0346 47.1993 39.8772ZM6.86449 53.6602C7.70112 44.1877 15.5872 36.7383 25.1602 36.7383H31.8398C41.4128 36.7383 49.2989 44.1877 50.1355 53.6602H6.86449Z" fill="#828282"/>
<path d="M66.5 18C58.2128 18 51.4707 24.7421 51.4707 33.0293C51.4707 41.3165 58.2128 48.0586 66.5 48.0586C74.7872 48.0586 81.5293 41.3165 81.5293 33.0293C81.5293 24.7421 74.7872 18 66.5 18ZM66.5 44.7188C60.0544 44.7188 54.8105 39.4749 54.8105 33.0293C54.8105 26.5837 60.0544 21.3398 66.5 21.3398C72.9456 21.3398 78.1895 26.5837 78.1895 33.0293C78.1895 39.4749 72.9456 44.7188 66.5 44.7188Z" fill="#828282"/>
<ellipse cx="66.5" cy="33" rx="12.5" ry="12" fill="#828282"/>
<path d="M85.1993 57.8772C81.0847 53.6993 75.6299 51.3984 69.8398 51.3984H63.1602C57.3702 51.3984 51.9153 53.6993 47.8007 57.8772C43.7061 62.0346 41.4512 67.5224 41.4512 73.3301C41.4512 74.2523 42.1989 75 43.1211 75H89.8789C90.8011 75 91.5488 74.2523 91.5488 73.3301C91.5488 67.5224 89.2939 62.0346 85.1993 57.8772ZM44.8645 71.6602C45.7011 62.1877 53.5872 54.7383 63.1602 54.7383H69.8398C79.4128 54.7383 87.2989 62.1877 88.1355 71.6602H44.8645Z" fill="#828282"/>
<rect x="43" y="63" width="47" height="12" rx="6" fill="#828282"/>
<rect x="47" y="57" width="39" height="12" rx="6" fill="#828282"/>
<rect x="50" y="54" width="31" height="12" rx="6" fill="#828282"/>
</svg>
